…
# see the first 100 Cholera documents with the possibility of duplicated fields in the form of list-cols
searchnlm(term = "cholera", retmax = 100, output = "wide") %>%
  print()
#> [1] "check if triggered: wide without listcols"
#> NULL

# query the NLM database for documents pertaining to Cholera and drop duplicated fields
cholera <- searchnlm(term = "cholera", retmax = 10000, output = "wide", collapse_to_first = TRUE)
print(cholera)
#> # A tibble: 2,000 x 17
#> # Groups:   rank, url [2,000]
#>   rank  url   dc.date title creator subject description Publication contributor
#>   <chr> <chr> <chr>   <chr> <chr>   <chr>   <chr>       <chr>       <chr>      
#> 1 0     http~ 1881    "The~ Bell, ~ "Diarr~ 2nd ed. / ~ New York :~ Laird, W. ~
#> 2 1     http~ 1888    "The~ Bell, ~ "Diarr~ 3rd ed      Philadelph~ <NA>       
#> 3 2     http~ 1870    "The~ Bell, ~ "Gastr~ <NA>        New York, ~ <NA>       
#> 4 3     http~ 1893    "The~ Majumd~ "<span~ <NA>        Philadelph~ <NA>       
#> 5 4     http~ 1852    "<sp~ Balfou~ "<span~ <NA>        Madras : F~ <NA>       
#> # ... with 1,995 more rows, and 8 more variables: format <chr>,
#> #   identifier <chr>, language <chr>, rights <chr>, snippet <chr>, type <chr>,
#> #   coverage <chr>, relation <chr>
```
…
